<?xml version="1.0" encoding="utf-8"?>
<!-- Generator: Adobe Illustrator 19.1.1, SVG Export Plug-In . SVG Version: 6.00 Build 0)  -->
<svg version="1.1" id="Слой_1" xmlns="http://www.w3.org/2000/svg" xmlns:xlink="http://www.w3.org/1999/xlink" x="0px" y="0px"
	 viewBox="0 0 168.1 194.3" style="enable-background:new 0 0 168.1 194.3;" xml:space="preserve">
<style type="text/css">
	.st0{clip-path:url(#SVGID_2_);fill:#ffffff;}
</style>
<g>
	<defs>
		<rect id="SVGID_1_" width="168.1" height="194.3"/>
	</defs>
	<clipPath id="SVGID_2_">
		<use xlink:href="#SVGID_1_"  style="overflow:visible;"/>
	</clipPath>
	<path class="st0" d="M105.8,25.4c0.3,0.1,0.7,0.2,1,0.2c1.2,0,2.4-0.8,2.8-2L115,9c0.6-1.6-0.2-3.3-1.8-3.8
		c-1.6-0.6-3.3,0.2-3.8,1.8L104,21.6C103.5,23.1,104.3,24.9,105.8,25.4"/>
	<path class="st0" d="M126.9,37.2c0.9,0,1.7-0.4,2.3-1.1l10-11.9c1.1-1.3,0.9-3.2-0.4-4.2c-1.3-1.1-3.2-0.9-4.2,0.4l-10,11.9
		c-1.1,1.3-0.9,3.2,0.4,4.2C125.5,37,126.2,37.2,126.9,37.2"/>
	<path class="st0" d="M24.8,116l-13.5,7.8c-1.4,0.8-1.9,2.7-1.1,4.1c0.6,1,1.6,1.5,2.6,1.5c0.5,0,1-0.1,1.5-0.4l13.5-7.8
		c1.4-0.8,1.9-2.7,1.1-4.1C28,115.7,26.2,115.2,24.8,116"/>
	<path class="st0" d="M139.2,53.4c0.6,1,1.6,1.5,2.6,1.5c0.5,0,1-0.1,1.5-0.4l13.5-7.8c1.4-0.8,1.9-2.7,1.1-4.1
		c-0.8-1.4-2.7-1.9-4.1-1.1l-13.5,7.8C138.9,50.2,138.4,52,139.2,53.4"/>
	<path class="st0" d="M21.3,96.3c-0.3-1.6-1.8-2.7-3.5-2.4L2.5,96.6c-1.6,0.3-2.7,1.8-2.4,3.5c0.3,1.5,1.5,2.5,3,2.5
		c0.2,0,0.3,0,0.5,0l15.3-2.7C20.5,99.5,21.6,98,21.3,96.3"/>
	<path class="st0" d="M146.8,74.2c0.3,1.5,1.5,2.5,3,2.5c0.2,0,0.3,0,0.5,0l15.3-2.7c1.6-0.3,2.7-1.8,2.4-3.5
		c-0.3-1.6-1.8-2.7-3.5-2.4l-15.3,2.7C147.6,71,146.5,72.6,146.8,74.2"/>
	<path class="st0" d="M2.5,73.9l15.3,2.7c0.2,0,0.4,0,0.5,0c1.4,0,2.7-1,3-2.5c0.3-1.6-0.8-3.2-2.4-3.5L3.5,68
		c-1.6-0.3-3.2,0.8-3.5,2.4C-0.2,72.1,0.8,73.7,2.5,73.9"/>
	<path class="st0" d="M165.6,96.6l-15.3-2.7c-1.6-0.3-3.2,0.8-3.5,2.4c-0.3,1.6,0.8,3.2,2.4,3.5l15.3,2.7c0.2,0,0.4,0,0.5,0
		c1.4,0,2.7-1,3-2.5C168.3,98.5,167.2,96.9,165.6,96.6"/>
	<path class="st0" d="M11.3,46.7l13.5,7.8c0.5,0.3,1,0.4,1.5,0.4c1,0,2-0.5,2.6-1.5c0.8-1.4,0.3-3.3-1.1-4.1l-13.5-7.8
		c-1.4-0.8-3.3-0.3-4.1,1.1C9.3,44.1,9.8,45.9,11.3,46.7"/>
	<path class="st0" d="M156.8,123.8l-13.5-7.8c-1.4-0.8-3.3-0.3-4.1,1.1c-0.8,1.4-0.3,3.3,1.1,4.1l13.5,7.8c0.5,0.3,1,0.4,1.5,0.4
		c1,0,2-0.5,2.6-1.5C158.7,126.5,158.2,124.7,156.8,123.8"/>
	<path class="st0" d="M38.9,36.1c0.6,0.7,1.4,1.1,2.3,1.1c0.7,0,1.4-0.2,1.9-0.7c1.3-1.1,1.4-3,0.4-4.2l-10-11.9
		c-1.1-1.3-3-1.4-4.2-0.4c-1.3,1.1-1.4,3-0.4,4.2L38.9,36.1z"/>
	<path class="st0" d="M58.4,23.6c0.4,1.2,1.6,2,2.8,2c0.3,0,0.7-0.1,1-0.2c1.6-0.6,2.4-2.3,1.8-3.8L58.7,6.9
		c-0.6-1.6-2.3-2.4-3.8-1.8c-1.6,0.6-2.4,2.3-1.8,3.8L58.4,23.6z"/>
	<path class="st0" d="M84,21.6c1.7,0,3-1.3,3-3V3c0-1.7-1.3-3-3-3c-1.7,0-3,1.3-3,3v15.6C81,20.2,82.4,21.6,84,21.6"/>
	<path class="st0" d="M84,30.5c-30.2,0-54.8,24.6-54.8,54.8c0,17.7,7.5,27.8,14.7,37.6c7.3,10,14.9,20.3,16.1,39.7
		c0.3,4.6,4.1,8.2,8.7,8.2h30.3c1.7,0,3,1.3,3,3c0,1.5-1.2,2.7-2.7,2.7H76.8c-4.8,0-8.7,3.9-8.7,8.7v0.3c0,4.8,3.9,8.7,8.7,8.7h8.4
		c1.7,0,3-1.3,3-3s-1.3-3-3-3h-8.4c-1.5,0-2.7-1.2-2.7-2.7v-0.3c0-1.5,1.2-2.7,2.7-2.7h22.4c4.8,0,8.7-3.9,8.7-8.7c0-5-4-9-9-9H68.7
		c-1.4,0-2.6-1.1-2.7-2.6c-1.3-21.2-9.7-32.8-17.2-42.9c-7.2-9.8-13.5-18.3-13.5-34.1c0-26.9,21.9-48.8,48.8-48.8
		s48.8,21.9,48.8,48.8c0,15.7-6.3,24.2-13.5,34.1c-6.3,8.5-12.7,17.4-15.7,31.6c-0.3,1.3-1.4,2.2-2.7,2.2H73.7c-1.7,0-3,1.3-3,3
		c0,1.7,1.3,3,3,3h27.2c4.1,0,7.7-2.9,8.5-6.9c2.7-12.9,8.8-21.2,14.7-29.3c7.2-9.8,14.7-20,14.7-37.7
		C138.8,55.1,114.2,30.5,84,30.5"/>
	<path class="st0" d="M58.8,85.2c-1.2,1.2-1.2,3.1,0,4.2c10.7,10.7,16.6,24.9,16.6,40V143c0,1.7,1.3,3,3,3c1.7,0,3-1.3,3-3v-13.5
		c0-16.7-6.5-32.4-18.3-44.3C61.9,84.1,60,84.1,58.8,85.2"/>
	<path class="st0" d="M86.7,143c0,1.7,1.3,3,3,3c1.7,0,3-1.3,3-3v-13.5c0-15.1,5.9-29.3,16.6-40c1.2-1.2,1.2-3.1,0-4.2
		c-1.2-1.2-3.1-1.2-4.2,0c-11.8,11.8-18.3,27.5-18.3,44.3V143z"/>
	<path class="st0" d="M96.1,75c-1.2-1.2-3.1-1.2-4.2,0L84,82.9L76.2,75c-0.6-0.6-1.3-0.9-2.1-0.9s-1.6,0.3-2.1,0.9l-5,5
		c-1.2,1.2-1.2,3.1,0,4.2c1.2,1.2,3.1,1.2,4.2,0l2.9-2.9l7.9,7.9c0.6,0.6,1.3,0.9,2.1,0.9c0.8,0,1.6-0.3,2.1-0.9l7.9-7.9l2.9,2.9
		c1.2,1.2,3.1,1.2,4.2,0c1.2-1.2,1.2-3.1,0-4.2L96.1,75z"/>
</g>
</svg>
