<?xml version="1.0" encoding="utf-8"?>
<!-- Generator: Adobe Illustrator 19.1.1, SVG Export Plug-In . SVG Version: 6.00 Build 0)  -->
<svg version="1.1" id="Слой_1" xmlns="http://www.w3.org/2000/svg" xmlns:xlink="http://www.w3.org/1999/xlink" x="0px" y="0px"
	 viewBox="0 0 166.5 206" style="enable-background:new 0 0 166.5 206;" xml:space="preserve">
<style type="text/css">
	.st0{clip-path:url(#SVGID_2_);fill:#ffffff;}
</style>
<g>
	<defs>
		<rect id="SVGID_1_" width="166.5" height="206"/>
	</defs>
	<clipPath id="SVGID_2_">
		<use xlink:href="#SVGID_1_"  style="overflow:visible;"/>
	</clipPath>
	<path class="st0" d="M165.1,80.7l-7.4-4.8l6.3-6.2c0.7-0.7,1-1.7,0.8-2.7c-0.2-1-0.9-1.8-1.8-2.2l-8.2-3.3l5-7.3
		c0.6-0.8,0.7-1.9,0.3-2.8c-0.4-0.9-1.2-1.6-2.2-1.8l-8.7-1.6l3.5-8.1c0.4-0.9,0.3-2-0.3-2.9c-0.6-0.8-1.5-1.3-2.5-1.3l-8.8,0.1
		l1.8-8.7c0.2-1-0.1-2-0.8-2.7c-0.7-0.7-1.8-1-2.7-0.8l-8.7,1.8l0.1-8.8c0-1-0.5-2-1.3-2.5s-1.9-0.7-2.9-0.3l-8.1,3.5l-1.6-8.7
		c-0.2-1-0.9-1.8-1.8-2.2c-0.9-0.4-2-0.3-2.8,0.3l-7.3,5l-3.3-8.2c-0.4-0.9-1.2-1.6-2.2-1.8c-1-0.2-2,0.1-2.7,0.8l-6.2,6.3l-4.8-7.4
		C85.2,0.5,84.3,0,83.2,0c-1,0-2,0.5-2.5,1.4l-4.8,7.4l-6.2-6.3C69,1.7,68,1.4,67,1.6c-1,0.2-1.8,0.9-2.2,1.8l-3.3,8.2l-7.3-5
		c-0.8-0.6-1.9-0.7-2.8-0.3c-0.9,0.4-1.6,1.2-1.8,2.2L48,17.3l-8.1-3.5c-0.9-0.4-2-0.3-2.9,0.3c-0.8,0.6-1.3,1.5-1.3,2.5l0.1,8.8
		l-8.7-1.8c-1-0.2-2,0.1-2.7,0.8c-0.7,0.7-1,1.8-0.8,2.7l1.8,8.7l-8.8-0.1c-1,0-2,0.5-2.5,1.3c-0.6,0.8-0.7,1.9-0.3,2.9l3.5,8.1
		l-8.7,1.6c-1,0.2-1.8,0.9-2.2,1.8c-0.4,0.9-0.3,2,0.3,2.8l5,7.3l-8.2,3.3C2.5,65.2,1.8,66,1.6,67c-0.2,1,0.1,2,0.9,2.7l6.3,6.2
		l-7.4,4.8C0.5,81.3,0,82.2,0,83.2c0,1,0.5,2,1.4,2.5l7.4,4.8l-6.3,6.2c-0.7,0.7-1,1.7-0.9,2.7c0.2,1,0.9,1.8,1.8,2.2l8.2,3.3
		l-5,7.3c-0.6,0.8-0.7,1.9-0.3,2.8c0.4,0.9,1.2,1.6,2.2,1.8l8.7,1.6l-3.5,8.1c-0.4,0.9-0.3,2,0.3,2.9c0.6,0.8,1.5,1.3,2.5,1.3
		l8.8-0.1l-1.8,8.7c-0.2,1,0.1,2,0.8,2.7c0.7,0.7,1.8,1,2.7,0.8l8.7-1.8l-0.1,8.1L19.3,179c-0.5,1-0.5,2.1,0.1,3
		c0.6,0.9,1.6,1.4,2.7,1.4l25.1-1.5l10,22.2c0.5,1,1.5,1.7,2.6,1.8c0.1,0,0.1,0,0.2,0c1.1,0,2-0.6,2.6-1.5l20.8-35.2l20.8,35.2
		c0.5,0.9,1.5,1.5,2.6,1.5c0.1,0,0.1,0,0.2,0c1.1-0.1,2.1-0.7,2.6-1.8l10-22.2l25.1,1.5c1.1,0.1,2.1-0.5,2.7-1.4
		c0.6-0.9,0.6-2.1,0.1-3l-16.4-29.8l-0.1-8.1l8.7,1.8c0.2,0,0.4,0.1,0.6,0.1c0,0,0,0,0,0c1.7,0,3-1.3,3-3c0-0.3-0.1-0.7-0.2-1
		l-1.8-8.3l8.8,0.1c1,0,2-0.5,2.5-1.3c0.6-0.8,0.7-1.9,0.3-2.9l-3.5-8.1l8.7-1.6c1-0.2,1.8-0.9,2.2-1.8c0.4-0.9,0.3-2-0.3-2.8
		l-5-7.3l8.2-3.3c0.9-0.4,1.6-1.2,1.8-2.2c0.2-1-0.1-2-0.8-2.7l-6.3-6.2l7.4-4.8c0.9-0.6,1.4-1.5,1.4-2.5
		C166.5,82.2,166,81.3,165.1,80.7 M60.3,196.5l-7.8-17.4l6.7-11.7c0.8-1.4,0.3-3.3-1.1-4.1c-1.4-0.8-3.3-0.3-4.1,1.1L47.3,176
		l-20.1,1.2l13.6-24.8l7.2-3.1l1.6,8.7c0.2,1,0.9,1.8,1.8,2.2c0.9,0.4,2,0.3,2.8-0.3l7.3-5l3.3,8.2c0.4,0.9,1.2,1.6,2.2,1.8
		c1,0.2,2-0.1,2.7-0.9l6.2-6.3l3.8,5.9L60.3,196.5z M119.4,176l-6.7-11.6c-0.8-1.4-2.7-1.9-4.1-1.1c-1.4,0.8-1.9,2.7-1.1,4.1
		l6.6,11.5l-7.9,17.7l-19.4-32.9l3.8-5.9l6.2,6.3c0.7,0.7,1.7,1.1,2.7,0.9c1-0.2,1.8-0.9,2.2-1.8l3.3-8.2l7.3,5
		c0.8,0.6,1.9,0.7,2.8,0.3c0.9-0.4,1.6-1.2,1.8-2.2l1.6-8.7l7.2,3.1l13.6,24.8L119.4,176z M151.3,87.6c-0.8,0.5-1.3,1.3-1.4,2.2
		c-0.1,0.9,0.2,1.8,0.9,2.4l5.7,5.6l-7.4,3c-0.8,0.3-1.5,1-1.8,1.9c-0.3,0.9-0.1,1.8,0.4,2.6l4.5,6.6l-7.8,1.5
		c-0.9,0.2-1.7,0.7-2.1,1.5c-0.4,0.8-0.5,1.8-0.1,2.6l3.2,7.3l-8-0.1c-0.9,0-1.8,0.4-2.4,1.1c-0.6,0.7-0.8,1.6-0.6,2.5l1.7,7.8
		l-7.8-1.7c-0.9-0.2-1.8,0-2.5,0.6c-0.7,0.6-1.1,1.4-1.1,2.4l0.1,8l-7.3-3.2c-0.8-0.4-1.8-0.3-2.6,0.1c-0.8,0.4-1.4,1.2-1.5,2.1
		l-1.5,7.8l-6.6-4.5c-0.8-0.5-1.7-0.7-2.6-0.4c-0.9,0.3-1.6,0.9-1.9,1.8l-3,7.4l-5.6-5.7c-0.6-0.7-1.5-1-2.4-0.9
		c-0.9,0.1-1.7,0.6-2.2,1.4l-4.3,6.7l-4.3-6.7c-0.5-0.8-1.3-1.3-2.2-1.4c-0.1,0-0.2,0-0.3,0c-0.8,0-1.6,0.3-2.1,0.9l-5.6,5.7l-3-7.4
		c-0.3-0.8-1-1.5-1.9-1.8c-0.9-0.3-1.8-0.1-2.6,0.4l-6.6,4.5l-1.5-7.8c-0.2-0.9-0.7-1.7-1.5-2.1c-0.8-0.4-1.8-0.5-2.6-0.1l-7.3,3.2
		l0.1-8c0-0.9-0.4-1.8-1.1-2.4c-0.7-0.6-1.6-0.8-2.5-0.6l-7.8,1.7l1.7-7.8c0.2-0.9,0-1.8-0.6-2.5c-0.6-0.7-1.5-1.1-2.4-1.1l-8,0.1
		l3.2-7.3c0.4-0.8,0.3-1.8-0.1-2.6c-0.4-0.8-1.2-1.4-2.1-1.5l-7.8-1.5l4.5-6.6c0.5-0.8,0.7-1.7,0.4-2.6c-0.3-0.9-0.9-1.6-1.8-1.9
		l-7.4-3l5.7-5.6c0.7-0.6,1-1.5,0.9-2.4c-0.1-0.9-0.6-1.7-1.4-2.2l-6.7-4.3l6.7-4.3c0.8-0.5,1.3-1.3,1.4-2.2
		c0.1-0.9-0.2-1.8-0.9-2.4l-5.7-5.6l7.4-3c0.8-0.3,1.5-1,1.8-1.9s0.1-1.8-0.4-2.6l-4.5-6.6l7.8-1.5c0.9-0.2,1.7-0.7,2.1-1.5
		c0.4-0.8,0.5-1.8,0.1-2.6l-3.2-7.3l8,0.1c0.9,0,1.8-0.4,2.4-1.1c0.6-0.7,0.8-1.6,0.6-2.5l-1.7-7.8l7.8,1.7c0.9,0.2,1.8,0,2.5-0.6
		c0.7-0.6,1.1-1.4,1.1-2.4l-0.1-8l7.3,3.2c0.8,0.4,1.8,0.3,2.6-0.1c0.8-0.4,1.4-1.2,1.5-2.1l1.5-7.8l6.6,4.5
		c0.8,0.5,1.7,0.7,2.6,0.4c0.9-0.3,1.6-0.9,1.9-1.8l3-7.4l5.6,5.7c0.6,0.7,1.5,1,2.4,0.9c0.9-0.1,1.7-0.6,2.2-1.4l4.3-6.7l4.3,6.7
		c0.5,0.8,1.3,1.3,2.2,1.4c0.9,0.1,1.8-0.2,2.4-0.9l5.6-5.7l3,7.4c0.3,0.8,1,1.5,1.9,1.8c0.9,0.3,1.8,0.1,2.6-0.4l6.6-4.5l1.5,7.8
		c0.2,0.9,0.7,1.7,1.5,2.1c0.8,0.4,1.8,0.5,2.6,0.1l7.3-3.2l-0.1,8c0,0.9,0.4,1.8,1.1,2.4c0.7,0.6,1.6,0.8,2.5,0.6l7.8-1.7l-1.7,7.8
		c-0.2,0.9,0,1.8,0.6,2.5c0.6,0.7,1.4,1.1,2.4,1.1l8-0.1l-3.2,7.3c-0.4,0.8-0.3,1.8,0.1,2.6c0.4,0.8,1.2,1.4,2.1,1.5l7.8,1.5
		l-4.5,6.6c-0.5,0.8-0.7,1.7-0.4,2.6c0.3,0.9,0.9,1.6,1.8,1.9l7.4,3l-5.7,5.6c-0.7,0.6-1,1.5-0.9,2.4c0.1,0.9,0.6,1.7,1.4,2.2
		l6.7,4.3L151.3,87.6z"/>
	<path class="st0" d="M83.2,23.6c-32.9,0-59.7,26.8-59.7,59.7s26.8,59.7,59.7,59.7c32.9,0,59.7-26.8,59.7-59.7S116.1,23.6,83.2,23.6
		 M83.2,136.9c-29.6,0-53.7-24.1-53.7-53.7s24.1-53.7,53.7-53.7s53.7,24.1,53.7,53.7S112.8,136.9,83.2,136.9"/>
	<path class="st0" d="M93.9,110.3h-7.6V54.1v0v0c0,0,0,0,0,0c0-0.2,0-0.4-0.1-0.6c0-0.1,0-0.2-0.1-0.2c0-0.1-0.1-0.2-0.1-0.3
		c0-0.1-0.1-0.2-0.1-0.3c0-0.1-0.1-0.2-0.1-0.2c-0.1-0.1-0.2-0.3-0.3-0.4c0,0,0,0,0-0.1c0,0,0,0,0,0c-0.1-0.1-0.3-0.3-0.5-0.4
		c-0.1-0.1-0.2-0.1-0.2-0.1c-0.1,0-0.2-0.1-0.3-0.1c-0.1,0-0.2-0.1-0.3-0.1c-0.1,0-0.2-0.1-0.2-0.1c-0.4-0.1-0.8-0.1-1.2,0
		c-0.1,0-0.1,0-0.2,0.1c-0.1,0-0.2,0.1-0.3,0.1c-0.1,0-0.2,0.1-0.3,0.1c-0.1,0-0.2,0.1-0.3,0.1c-0.1,0.1-0.3,0.2-0.4,0.3
		c0,0,0,0-0.1,0l-7.3,7.3c-1.2,1.2-1.2,3.1,0,4.2c0.6,0.6,1.4,0.9,2.1,0.9c0.8,0,1.5-0.3,2.1-0.9l2.2-2.2v48.9h-7.6
		c-1.7,0-3,1.3-3,3c0,1.7,1.3,3,3,3h21.2c1.7,0,3-1.3,3-3C96.9,111.6,95.5,110.3,93.9,110.3"/>
</g>
</svg>
